{
  "emails": [
    "ainreVkXKzS@gmail.com",
    "sicnarFRENc8@gmail.com",
    "bocaJe7ZOJ@gmail.com",
    "ramaJcB0P9@gmail.com",
    "eelyaKtas66@gmail.com",
    "oeLaYWi6@gmail.com",
    "airdnaxelAPJeBC@gmail.com",
    "eltsirKVttrA@gmail.com",
    "naoLWHD7J@gmail.com",
    "izuSt6cMt@gmail.com",
    "eniluqcaJR0Byb@gmail.com",
    "hgielhsAZVKPq@gmail.com",
    "llirehS6Fhaj@gmail.com",
    "lenaJKtOGd@gmail.com",
    "oiligriVttUOc@gmail.com",
    "elyLoXSd4@gmail.com",
    "notserPnLxg2@gmail.com",
    "nnayraMPQbKa@gmail.com",
    "atteuoLecQcq@gmail.com",
    "ligriVbSrtM@gmail.com"
  ]
}
